%YAML 1.1
%TAG !u! tag:unity3d.com,2011:
--- !u!74 &7400000
AnimationClip:
  m_ObjectHideFlags: 0
  m_CorrespondingSourceObject: {fileID: 0}
  m_PrefabInternal: {fileID: 0}
  m_Name: Fire02
  serializedVersion: 6
  m_Legacy: 0
  m_Compressed: 0
  m_UseHighQualityCurve: 1
  m_RotationCurves: []
  m_CompressedRotationCurves: []
  m_EulerCurves: []
  m_PositionCurves: []
  m_ScaleCurves: []
  m_FloatCurves: []
  m_PPtrCurves:
  - curve:
    - time: 0
      value: {fileID: 21300000, guid: cd91755a93abfa449b36acbceb210d29, type: 3}
    - time: 0.033333335
      value: {fileID: 21300000, guid: 560fbe0ff898c0344b5c9d229ade464e, type: 3}
    - time: 0.06666667
      value: {fileID: 21300000, guid: b27ccfc12ba4fd14d84901015f3fc95d, type: 3}
    - time: 0.1
      value: {fileID: 21300000, guid: c761318a05238ec4991b87d8b3ea40c7, type: 3}
    - time: 0.13333334
      value: {fileID: 21300000, guid: 825b1cc70ccb9a24492ddef5c1c5ea52, type: 3}
    - time: 0.16666667
      value: {fileID: 21300000, guid: d60ea7363bf3be24eb62d3a6f0d0c011, type: 3}
    - time: 0.2
      value: {fileID: 21300000, guid: 0d2ac80d4afc4384899a2f2d3990513f, type: 3}
    - time: 0.23333333
      value: {fileID: 21300000, guid: d15784889fe659b44b5a6b72930af0c5, type: 3}
    - time: 0.26666668
      value: {fileID: 21300000, guid: 9ecd508669398094995794d0f55e60f7, type: 3}
    - time: 0.3
      value: {fileID: 21300000, guid: 517f7c98083e1754cb3aed2ac09030d7, type: 3}
    - time: 0.33333334
      value: {fileID: 21300000, guid: 0c7a99bd73b70dc4f859e50909c456ca, type: 3}
    - time: 0.36666667
      value: {fileID: 21300000, guid: a5f9a836fd105d546bb457d3b38fd970, type: 3}
    - time: 0.4
      value: {fileID: 21300000, guid: 6bb0e357c4abbdd46931515239052716, type: 3}
    - time: 0.43333334
      value: {fileID: 21300000, guid: fbfb083c61b63054ea4773797d805014, type: 3}
    - time: 0.46666667
      value: {fileID: 21300000, guid: 8da75b2522b921a4692f2125a166601b, type: 3}
    - time: 0.5
      value: {fileID: 21300000, guid: d8fab3933c3a5d440b920cbb7bb8709a, type: 3}
    - time: 0.53333336
      value: {fileID: 21300000, guid: fbe7a3151ef3dfa4f9353fc2acad99b1, type: 3}
    - time: 0.56666666
      value: {fileID: 21300000, guid: 6dffd648314998444a346d0bde79e341, type: 3}
    - time: 0.6
      value: {fileID: 21300000, guid: 6948ac0d92af10b48b891ed025eede99, type: 3}
    - time: 0.6333333
      value: {fileID: 21300000, guid: edcd57e42c7b5714c9218de4cde316df, type: 3}
    - time: 0.6666667
      value: {fileID: 21300000, guid: 670cfb00308a49342b2e8db653d29d88, type: 3}
    - time: 0.7
      value: {fileID: 21300000, guid: e411cb4dcb636f44595a5f9ee7bf2a3a, type: 3}
    - time: 0.73333335
      value: {fileID: 21300000, guid: 80d9fe90064d8ce4d92c0acb7a0ba34b, type: 3}
    - time: 0.76666665
      value: {fileID: 21300000, guid: 0518ffa7f3085ba4c8aac8862468bdb2, type: 3}
    - time: 0.8
      value: {fileID: 21300000, guid: e6e2487e28b9db344b13a8f7595fd8f0, type: 3}
    - time: 0.8333333
      value: {fileID: 21300000, guid: 5d8b8aa1b2c9d6748bacaf9255ac0906, type: 3}
    - time: 0.8666667
      value: {fileID: 21300000, guid: ba28fe95c4acd064c85c8021997f4c3f, type: 3}
    - time: 0.9
      value: {fileID: 21300000, guid: 30acf9eb7ee70654b8113927beb30eff, type: 3}
    - time: 0.93333334
      value: {fileID: 21300000, guid: cea751892c6a0744aaf67fa29f9fa2f8, type: 3}
    - time: 0.96666664
      value: {fileID: 21300000, guid: 2369559f64174a04cac8eba5d5631534, type: 3}
    - time: 1
      value: {fileID: 21300000, guid: 8daa2f611bebca64796c2ce4682fc902, type: 3}
    - time: 1.0333333
      value: {fileID: 21300000, guid: 58bf436da8b72b24384527e38471e214, type: 3}
    - time: 1.0666667
      value: {fileID: 21300000, guid: 9ee759843b6f0434cb52eb5745994fae, type: 3}
    - time: 1.1
      value: {fileID: 21300000, guid: 37c5b319b6207184db4a6af144b47354, type: 3}
    - time: 1.1333333
      value: {fileID: 21300000, guid: 2ec97bc747765aa47bc5416345e204c1, type: 3}
    - time: 1.1666666
      value: {fileID: 21300000, guid: 701ea6283058dc449a3c4e44d2066978, type: 3}
    - time: 1.2
      value: {fileID: 21300000, guid: b61d400d51989aa43baaa7884f4bb49e, type: 3}
    - time: 1.2333333
      value: {fileID: 21300000, guid: 2cd9361a52c97bd4e8b11882babd4ed6, type: 3}
    - time: 1.2666667
      value: {fileID: 21300000, guid: cbb5f0f7b0d05cd468da27d95aaf1da7, type: 3}
    - time: 1.3
      value: {fileID: 21300000, guid: 9e8df48d10575a441be22d454b182109, type: 3}
    - time: 1.3333334
      value: {fileID: 21300000, guid: 1d4102378365a2845809df0d262bd86f, type: 3}
    - time: 1.3666667
      value: {fileID: 21300000, guid: b921b41d4d5e318408c012d8d57289ee, type: 3}
    - time: 1.4
      value: {fileID: 21300000, guid: ec21eb4c49105f94c910d1b452385881, type: 3}
    - time: 1.4333333
      value: {fileID: 21300000, guid: 42723da9ae6040748963bca888ce31a9, type: 3}
    - time: 1.4666667
      value: {fileID: 21300000, guid: 87213a8743bcd3649a9fbb9f238202f7, type: 3}
    - time: 1.5166667
      value: {fileID: 21300000, guid: 455af3fa475b9664187fdf1e25d60c72, type: 3}
    - time: 1.55
      value: {fileID: 21300000, guid: 33ca5bdf6e81cf149820c10eb248a065, type: 3}
    - time: 1.5833334
      value: {fileID: 21300000, guid: 2976a8078b5883243b4e2107b9c5f073, type: 3}
    - time: 1.6166667
      value: {fileID: 21300000, guid: 12ce6c5f3b5266b46979c95bf99cd762, type: 3}
    - time: 1.65
      value: {fileID: 21300000, guid: 77425b406bf1d4544bbfa454de5ed0fb, type: 3}
    - time: 1.6833333
      value: {fileID: 21300000, guid: 214b0c274ecec42479ce594ff35e84db, type: 3}
    - time: 1.7166667
      value: {fileID: 21300000, guid: 84016aa3bca63454b9b3b96b6b729b2b, type: 3}
    - time: 1.75
      value: {fileID: 21300000, guid: fa1fe60ccb480d949b821646d6686a6e, type: 3}
    - time: 1.7833333
      value: {fileID: 21300000, guid: 227942b87b1b6b647800c77963a7f9c1, type: 3}
    - time: 1.8166667
      value: {fileID: 21300000, guid: d9ae8b51d554a2747983dd27d8ae0234, type: 3}
    - time: 1.85
      value: {fileID: 21300000, guid: 1d52897870ab2b84d807d3f4198f0f81, type: 3}
    - time: 1.8833333
      value: {fileID: 21300000, guid: 8b027859a9892a7499ff3570df4bf63a, type: 3}
    - time: 1.9166666
      value: {fileID: 21300000, guid: 44afdbd991584a24f99be5fb5c25056d, type: 3}
    - time: 1.95
      value: {fileID: 21300000, guid: 02155074f1768314ab6ca9e0c020f1fe, type: 3}
    - time: 1.9833333
      value: {fileID: 21300000, guid: d954ff9af0e2d984482eef7b69f1b72f, type: 3}
    - time: 2.0166667
      value: {fileID: 21300000, guid: 0246eb08ac5afec4eb5024530ab41bdb, type: 3}
    - time: 2.05
      value: {fileID: 21300000, guid: c6a0122e3cc0182498309f9a0ced12cf, type: 3}
    - time: 2.0833333
      value: {fileID: 21300000, guid: bf12b360cc1ee7147bd16a097aaf0b0b, type: 3}
    - time: 2.1166666
      value: {fileID: 21300000, guid: 5fe2415bc6bada04e84040a46555df4a, type: 3}
    - time: 2.15
      value: {fileID: 21300000, guid: 03eb2a77f6d18ad48942a5f96ef9d2f7, type: 3}
    - time: 2.1833334
      value: {fileID: 21300000, guid: 7633fa47ae2e3b04da3e2b9a777f408c, type: 3}
    - time: 2.2166667
      value: {fileID: 21300000, guid: 0baa53130204eb94e95693861f0873f0, type: 3}
    - time: 2.25
      value: {fileID: 21300000, guid: 597fc096bef52bc42aed8afbb6ac802d, type: 3}
    - time: 2.2833333
      value: {fileID: 21300000, guid: d9af1462ff69d374a9c4c13cadaa592e, type: 3}
    - time: 2.3166666
      value: {fileID: 21300000, guid: 231dacd34be03a546afad27f7c0480fa, type: 3}
    - time: 2.35
      value: {fileID: 21300000, guid: 0bb4f3397a85046489f0ae3b8e5fc17f, type: 3}
    - time: 2.3833334
      value: {fileID: 21300000, guid: 8c3b8c829ef9a8244a072fe36fdfb8f9, type: 3}
    - time: 2.4166667
      value: {fileID: 21300000, guid: a39d6ad10dd9d1a48b94d1089a8822e6, type: 3}
    - time: 2.45
      value: {fileID: 21300000, guid: 5448ca6e2abad2d41b907fd14dcc7942, type: 3}
    - time: 2.4833333
      value: {fileID: 21300000, guid: 071be46a814e4904eaaf4ad7c4f3c700, type: 3}
    - time: 2.5166667
      value: {fileID: 21300000, guid: dcc8464989f78734592e3219fdb27106, type: 3}
    - time: 2.55
      value: {fileID: 21300000, guid: e55ba39288aeab8429c1e016412cbb64, type: 3}
    - time: 2.5833333
      value: {fileID: 21300000, guid: 46b56856873593048aa46b3316d145a6, type: 3}
    - time: 2.6166666
      value: {fileID: 21300000, guid: e8c5d030c9f601c4aa50fe1d39555173, type: 3}
    - time: 2.65
      value: {fileID: 21300000, guid: 81f8b590e1f8f8249864c208ca647d33, type: 3}
    - time: 2.6833334
      value: {fileID: 21300000, guid: 5b765351c47b2d247b32a1071bb162a5, type: 3}
    - time: 2.7166667
      value: {fileID: 21300000, guid: bccaedff9b4c92b4fbff135dcb23438a, type: 3}
    - time: 2.75
      value: {fileID: 21300000, guid: 593689a11aa0ab24d93a6e9e90e3b7bd, type: 3}
    - time: 2.7833333
      value: {fileID: 21300000, guid: a2247bfbe9f79684a8a0a6ea8665c03e, type: 3}
    - time: 2.8166666
      value: {fileID: 21300000, guid: 4f310998c83981e46b53a8bf742ed972, type: 3}
    - time: 2.85
      value: {fileID: 21300000, guid: a6ac9cd1c6478bf4688d53ffeaa97816, type: 3}
    - time: 2.8833334
      value: {fileID: 21300000, guid: 87e8545cd62c72c47ae7f123df0875f8, type: 3}
    - time: 2.9166667
      value: {fileID: 21300000, guid: ccf28a314b9ff024a88282d3f30e8e89, type: 3}
    - time: 2.95
      value: {fileID: 21300000, guid: fd61de226c5c93f4999c8420b46e1cfb, type: 3}
    - time: 2.9833333
      value: {fileID: 21300000, guid: 287cc39251b9af4428bba3d67523e9a1, type: 3}
    - time: 3.0166667
      value: {fileID: 21300000, guid: bfd15b816a76b7d4b9ada5ad4fe5b570, type: 3}
    - time: 3.05
      value: {fileID: 21300000, guid: b090baf7fb5cd1f45af7bf13680842da, type: 3}
    - time: 3.0833333
      value: {fileID: 21300000, guid: 9d88aab42b738da4db720e5fc6ce7b21, type: 3}
    - time: 3.1166666
      value: {fileID: 21300000, guid: a6aa7bf54d13c234fa28260ffc238bad, type: 3}
    - time: 3.15
      value: {fileID: 21300000, guid: 16a888c3eaf3f1544aee8345da8c82c8, type: 3}
    - time: 3.1833334
      value: {fileID: 21300000, guid: b7be54387dbbc7340a2876943ab60326, type: 3}
    - time: 3.2166667
      value: {fileID: 21300000, guid: 351ebc48973bbf54187859f2d91a843f, type: 3}
    - time: 3.25
      value: {fileID: 21300000, guid: 8ff571037d78ce249b224009d8c73596, type: 3}
    - time: 3.2833333
      value: {fileID: 21300000, guid: d219f8a21ab6da24ca8d70ecd1dd20f6, type: 3}
    - time: 3.3166666
      value: {fileID: 21300000, guid: 4de6c1ca5a670504792b55cc9d0cfdfa, type: 3}
    - time: 3.35
      value: {fileID: 21300000, guid: f2b4dec2b585b9f448885c62babf5ded, type: 3}
    - time: 3.3833334
      value: {fileID: 21300000, guid: 9ecaf2508877a3647a09f13bbda8eecf, type: 3}
    - time: 3.4166667
      value: {fileID: 21300000, guid: c506e3bd27d8a02439fba8e2eaf3727e, type: 3}
    - time: 3.45
      value: {fileID: 21300000, guid: b37dd9c19270c0f42959da83459add25, type: 3}
    - time: 3.4833333
      value: {fileID: 21300000, guid: 6c2701b6d9edb9048b6d2f1eb061b6c4, type: 3}
    - time: 3.5166667
      value: {fileID: 21300000, guid: 90c1169a80a8f9144ab1e3d224fa007b, type: 3}
    - time: 3.55
      value: {fileID: 21300000, guid: b973d93c13b823e46acfb2831184fec4, type: 3}
    - time: 3.5833333
      value: {fileID: 21300000, guid: fbcc7fc31fef63b4e84efb2170c96da0, type: 3}
    - time: 3.6166666
      value: {fileID: 21300000, guid: 099b557a0ea5174468156ab182c74c88, type: 3}
    - time: 3.65
      value: {fileID: 21300000, guid: 001e482d216e7e649887176d530fff06, type: 3}
    - time: 3.6833334
      value: {fileID: 21300000, guid: 078d933413a86cc4da3aec7c5018643f, type: 3}
    - time: 3.7166667
      value: {fileID: 21300000, guid: e5402f8fab9c2ba4a9b1eb874dfa2210, type: 3}
    - time: 3.75
      value: {fileID: 21300000, guid: af927a3a46224ce40a258df897a81e53, type: 3}
    - time: 3.7833333
      value: {fileID: 21300000, guid: 459cbbcdb719cdd45909c216c71058c2, type: 3}
    - time: 3.8166666
      value: {fileID: 21300000, guid: 429afe686aedef54aa6b02e8501bed72, type: 3}
    - time: 3.85
      value: {fileID: 21300000, guid: 3449b3580ef65b54f9611425cf8f391e, type: 3}
    - time: 3.8833334
      value: {fileID: 21300000, guid: 05978dee381fe7f48a6e57ce611c29e3, type: 3}
    - time: 3.9166667
      value: {fileID: 21300000, guid: 627e70d1baed6774691a82734db700b3, type: 3}
    - time: 3.95
      value: {fileID: 21300000, guid: 590a678fea769c648abb7764e978e3fc, type: 3}
    - time: 3.9833333
      value: {fileID: 21300000, guid: b62697ba5d55e244bad909c48833fa79, type: 3}
    - time: 4.016667
      value: {fileID: 21300000, guid: d3268af412758f4438b1364c3aeb7dd0, type: 3}
    - time: 4.05
      value: {fileID: 21300000, guid: 7c1e9b1f502b215479f6bfd1af151d88, type: 3}
    - time: 4.0833335
      value: {fileID: 21300000, guid: 5aad1bb5bb76aed4bacb6a3fee3447bc, type: 3}
    - time: 4.116667
      value: {fileID: 21300000, guid: 240f822fbe5ba5a41806619ae6edde0e, type: 3}
    - time: 4.15
      value: {fileID: 21300000, guid: 258d8178ed8af904ba4a9c076ba49797, type: 3}
    - time: 4.1833334
      value: {fileID: 21300000, guid: 7d7ddd25d7c980240b620732e388ea24, type: 3}
    - time: 4.2166667
      value: {fileID: 21300000, guid: 11e2b03cd1499614a8f99fa51ee650c8, type: 3}
    - time: 4.25
      value: {fileID: 21300000, guid: 978abd28e4d676d47862dcf5f879e6d8, type: 3}
    - time: 4.2833333
      value: {fileID: 21300000, guid: 83604098c74cb8e4e8aed953138fd60b, type: 3}
    - time: 4.3166666
      value: {fileID: 21300000, guid: ef5bee7865af5384181a8cbcfa6cea33, type: 3}
    - time: 4.35
      value: {fileID: 21300000, guid: 917ab82a52c043e42b06321892f1afd3, type: 3}
    - time: 4.383333
      value: {fileID: 21300000, guid: 691298f02318f2a4b9e5bcdc1c323e6e, type: 3}
    - time: 4.4166665
      value: {fileID: 21300000, guid: 8d10491aa6ae60341883e8c5126085eb, type: 3}
    - time: 4.45
      value: {fileID: 21300000, guid: a7129ed7cf9ea924cb4cb78de71edfa4, type: 3}
    - time: 4.483333
      value: {fileID: 21300000, guid: e344a51a378769944a16d6af07d25b2f, type: 3}
    - time: 4.5333333
      value: {fileID: 21300000, guid: 8812588f539709448b419b481a3b9d5c, type: 3}
    - time: 4.5666666
      value: {fileID: 21300000, guid: 86886be8c4bbfcb40bfea198ea227124, type: 3}
    - time: 4.6
      value: {fileID: 21300000, guid: 64b3fc27de3f9634d912dfda81c7f830, type: 3}
    - time: 4.633333
      value: {fileID: 21300000, guid: c2569aff4862b3f4586aaa72f120d189, type: 3}
    - time: 4.6666665
      value: {fileID: 21300000, guid: 14ae20cdbd7f7954b9723897526e19a1, type: 3}
    - time: 4.7
      value: {fileID: 21300000, guid: 46dbeaa8b8330a44ca7731b8fb58c66f, type: 3}
    - time: 4.733333
      value: {fileID: 21300000, guid: 64a451e7d98cd1041ba52f761a8a1f1e, type: 3}
    - time: 4.766667
      value: {fileID: 21300000, guid: 892bd534c8b27f048825e87d84a74871, type: 3}
    - time: 4.8
      value: {fileID: 21300000, guid: 37483ddf5f81e0e45a8fb15c97065d91, type: 3}
    - time: 4.8333335
      value: {fileID: 21300000, guid: 83653073901f7504b82e9b35b22ab27a, type: 3}
    - time: 4.866667
      value: {fileID: 21300000, guid: a4f284972d9cdf34e85cc014ad3dd0b0, type: 3}
    - time: 4.9
      value: {fileID: 21300000, guid: 379ce58d6eb7e3944824fe537820e130, type: 3}
    - time: 4.9333334
      value: {fileID: 21300000, guid: aabb4d0bc71c1cd40b75319dc4d38b39, type: 3}
    - time: 4.9666667
      value: {fileID: 21300000, guid: 3d5ee1e5c76b2e1449aac003a5d4555d, type: 3}
    - time: 5
      value: {fileID: 21300000, guid: f4b980addbfe0d848838a853e3772330, type: 3}
    - time: 5.0333333
      value: {fileID: 21300000, guid: 4837554e8f15f074491d61c73eaccd5d, type: 3}
    - time: 5.0666666
      value: {fileID: 21300000, guid: 3ad77bc98b0289a41b5ea2a7748c9703, type: 3}
    - time: 5.1
      value: {fileID: 21300000, guid: 2851564a7c514d946afd2c1e18c29a16, type: 3}
    - time: 5.133333
      value: {fileID: 21300000, guid: 571a0599f53f5a94ca758610e3dad57b, type: 3}
    - time: 5.1666665
      value: {fileID: 21300000, guid: 7d8b957aeb68cf0459cef84f6b514445, type: 3}
    - time: 5.2
      value: {fileID: 21300000, guid: 66a06ff95f7e8d44ab06af956d47abfb, type: 3}
    - time: 5.233333
      value: {fileID: 21300000, guid: fa9b7e02384c43c44bec07f2a5a5c1ef, type: 3}
    - time: 5.266667
      value: {fileID: 21300000, guid: 566bfd054388463479a748ad0a8045d9, type: 3}
    - time: 5.3
      value: {fileID: 21300000, guid: 8e0669635fc812844a74e3a020004bd8, type: 3}
    - time: 5.3333335
      value: {fileID: 21300000, guid: a8099c925829a0e4b82f6451613eb309, type: 3}
    - time: 5.366667
      value: {fileID: 21300000, guid: c88691ac3c5397941a6c3f8d13659e2b, type: 3}
    - time: 5.4
      value: {fileID: 21300000, guid: 8d65a5def9d4a884c927f008a7b0b609, type: 3}
    - time: 5.4333334
      value: {fileID: 21300000, guid: 9a04df9a61cb1de428ac265ec4ea494f, type: 3}
    - time: 5.4666667
      value: {fileID: 21300000, guid: 3463df4c1f40b4346b42b71b5555bb50, type: 3}
    - time: 5.5
      value: {fileID: 21300000, guid: 940ad437fef2bf247a382a722c160415, type: 3}
    - time: 5.5333333
      value: {fileID: 21300000, guid: b3fd6460b160ea34d9f37f32ed5d24b7, type: 3}
    - time: 5.5666666
      value: {fileID: 21300000, guid: 3afa5a6a865be2348a8372b27f7d8bb0, type: 3}
    - time: 5.6
      value: {fileID: 21300000, guid: 36add9e25e7bee7428e28e82a9f1c668, type: 3}
    - time: 5.633333
      value: {fileID: 21300000, guid: e0cfec1c55c594c4ab3fec9c5a03fbce, type: 3}
    - time: 5.6666665
      value: {fileID: 21300000, guid: f91d8e6a40e058b4181bc619b374b576, type: 3}
    - time: 5.7
      value: {fileID: 21300000, guid: 19fe2ace7f25f2149aec1a1c8ca96e47, type: 3}
    - time: 5.733333
      value: {fileID: 21300000, guid: 3848ec71459079c4ca96767879493a0f, type: 3}
    - time: 5.766667
      value: {fileID: 21300000, guid: 5b79f8ff4f45dc5419d51ed0d3a5cba3, type: 3}
    - time: 5.8
      value: {fileID: 21300000, guid: fba64f01e59a61d47853f340b24a9522, type: 3}
    - time: 5.8333335
      value: {fileID: 21300000, guid: 95cabbba4fb8a4549af38301844d69fb, type: 3}
    - time: 5.866667
      value: {fileID: 21300000, guid: f4d91d91fca313144abfccc2bff51e75, type: 3}
    - time: 5.9
      value: {fileID: 21300000, guid: 4e6c81d836398d84d92b1efd07269662, type: 3}
    - time: 5.9333334
      value: {fileID: 21300000, guid: 3b24132876739a6418fd9aba780f5a77, type: 3}
    - time: 5.9666667
      value: {fileID: 21300000, guid: 08035cf4425f77f429731eae6247f68a, type: 3}
    - time: 6
      value: {fileID: 21300000, guid: 9a49d48203510e542bf5fcc4e24e8c49, type: 3}
    attribute: m_Sprite
    path: 
    classID: 212
    script: {fileID: 0}
  m_SampleRate: 60
  m_WrapMode: 0
  m_Bounds:
    m_Center: {x: 0, y: 0, z: 0}
    m_Extent: {x: 0, y: 0, z: 0}
  m_ClipBindingConstant:
    genericBindings:
    - serializedVersion: 2
      path: 0
      attribute: 0
      script: {fileID: 0}
      typeID: 212
      customType: 23
      isPPtrCurve: 1
    pptrCurveMapping:
    - {fileID: 21300000, guid: cd91755a93abfa449b36acbceb210d29, type: 3}
    - {fileID: 21300000, guid: 560fbe0ff898c0344b5c9d229ade464e, type: 3}
    - {fileID: 21300000, guid: b27ccfc12ba4fd14d84901015f3fc95d, type: 3}
    - {fileID: 21300000, guid: c761318a05238ec4991b87d8b3ea40c7, type: 3}
    - {fileID: 21300000, guid: 825b1cc70ccb9a24492ddef5c1c5ea52, type: 3}
    - {fileID: 21300000, guid: d60ea7363bf3be24eb62d3a6f0d0c011, type: 3}
    - {fileID: 21300000, guid: 0d2ac80d4afc4384899a2f2d3990513f, type: 3}
    - {fileID: 21300000, guid: d15784889fe659b44b5a6b72930af0c5, type: 3}
    - {fileID: 21300000, guid: 9ecd508669398094995794d0f55e60f7, type: 3}
    - {fileID: 21300000, guid: 517f7c98083e1754cb3aed2ac09030d7, type: 3}
    - {fileID: 21300000, guid: 0c7a99bd73b70dc4f859e50909c456ca, type: 3}
    - {fileID: 21300000, guid: a5f9a836fd105d546bb457d3b38fd970, type: 3}
    - {fileID: 21300000, guid: 6bb0e357c4abbdd46931515239052716, type: 3}
    - {fileID: 21300000, guid: fbfb083c61b63054ea4773797d805014, type: 3}
    - {fileID: 21300000, guid: 8da75b2522b921a4692f2125a166601b, type: 3}
    - {fileID: 21300000, guid: d8fab3933c3a5d440b920cbb7bb8709a, type: 3}
    - {fileID: 21300000, guid: fbe7a3151ef3dfa4f9353fc2acad99b1, type: 3}
    - {fileID: 21300000, guid: 6dffd648314998444a346d0bde79e341, type: 3}
    - {fileID: 21300000, guid: 6948ac0d92af10b48b891ed025eede99, type: 3}
    - {fileID: 21300000, guid: edcd57e42c7b5714c9218de4cde316df, type: 3}
    - {fileID: 21300000, guid: 670cfb00308a49342b2e8db653d29d88, type: 3}
    - {fileID: 21300000, guid: e411cb4dcb636f44595a5f9ee7bf2a3a, type: 3}
    - {fileID: 21300000, guid: 80d9fe90064d8ce4d92c0acb7a0ba34b, type: 3}
    - {fileID: 21300000, guid: 0518ffa7f3085ba4c8aac8862468bdb2, type: 3}
    - {fileID: 21300000, guid: e6e2487e28b9db344b13a8f7595fd8f0, type: 3}
    - {fileID: 21300000, guid: 5d8b8aa1b2c9d6748bacaf9255ac0906, type: 3}
    - {fileID: 21300000, guid: ba28fe95c4acd064c85c8021997f4c3f, type: 3}
    - {fileID: 21300000, guid: 30acf9eb7ee70654b8113927beb30eff, type: 3}
    - {fileID: 21300000, guid: cea751892c6a0744aaf67fa29f9fa2f8, type: 3}
    - {fileID: 21300000, guid: 2369559f64174a04cac8eba5d5631534, type: 3}
    - {fileID: 21300000, guid: 8daa2f611bebca64796c2ce4682fc902, type: 3}
    - {fileID: 21300000, guid: 58bf436da8b72b24384527e38471e214, type: 3}
    - {fileID: 21300000, guid: 9ee759843b6f0434cb52eb5745994fae, type: 3}
    - {fileID: 21300000, guid: 37c5b319b6207184db4a6af144b47354, type: 3}
    - {fileID: 21300000, guid: 2ec97bc747765aa47bc5416345e204c1, type: 3}
    - {fileID: 21300000, guid: 701ea6283058dc449a3c4e44d2066978, type: 3}
    - {fileID: 21300000, guid: b61d400d51989aa43baaa7884f4bb49e, type: 3}
    - {fileID: 21300000, guid: 2cd9361a52c97bd4e8b11882babd4ed6, type: 3}
    - {fileID: 21300000, guid: cbb5f0f7b0d05cd468da27d95aaf1da7, type: 3}
    - {fileID: 21300000, guid: 9e8df48d10575a441be22d454b182109, type: 3}
    - {fileID: 21300000, guid: 1d4102378365a2845809df0d262bd86f, type: 3}
    - {fileID: 21300000, guid: b921b41d4d5e318408c012d8d57289ee, type: 3}
    - {fileID: 21300000, guid: ec21eb4c49105f94c910d1b452385881, type: 3}
    - {fileID: 21300000, guid: 42723da9ae6040748963bca888ce31a9, type: 3}
    - {fileID: 21300000, guid: 87213a8743bcd3649a9fbb9f238202f7, type: 3}
    - {fileID: 21300000, guid: 455af3fa475b9664187fdf1e25d60c72, type: 3}
    - {fileID: 21300000, guid: 33ca5bdf6e81cf149820c10eb248a065, type: 3}
    - {fileID: 21300000, guid: 2976a8078b5883243b4e2107b9c5f073, type: 3}
    - {fileID: 21300000, guid: 12ce6c5f3b5266b46979c95bf99cd762, type: 3}
    - {fileID: 21300000, guid: 77425b406bf1d4544bbfa454de5ed0fb, type: 3}
    - {fileID: 21300000, guid: 214b0c274ecec42479ce594ff35e84db, type: 3}
    - {fileID: 21300000, guid: 84016aa3bca63454b9b3b96b6b729b2b, type: 3}
    - {fileID: 21300000, guid: fa1fe60ccb480d949b821646d6686a6e, type: 3}
    - {fileID: 21300000, guid: 227942b87b1b6b647800c77963a7f9c1, type: 3}
    - {fileID: 21300000, guid: d9ae8b51d554a2747983dd27d8ae0234, type: 3}
    - {fileID: 21300000, guid: 1d52897870ab2b84d807d3f4198f0f81, type: 3}
    - {fileID: 21300000, guid: 8b027859a9892a7499ff3570df4bf63a, type: 3}
    - {fileID: 21300000, guid: 44afdbd991584a24f99be5fb5c25056d, type: 3}
    - {fileID: 21300000, guid: 02155074f1768314ab6ca9e0c020f1fe, type: 3}
    - {fileID: 21300000, guid: d954ff9af0e2d984482eef7b69f1b72f, type: 3}
    - {fileID: 21300000, guid: 0246eb08ac5afec4eb5024530ab41bdb, type: 3}
    - {fileID: 21300000, guid: c6a0122e3cc0182498309f9a0ced12cf, type: 3}
    - {fileID: 21300000, guid: bf12b360cc1ee7147bd16a097aaf0b0b, type: 3}
    - {fileID: 21300000, guid: 5fe2415bc6bada04e84040a46555df4a, type: 3}
    - {fileID: 21300000, guid: 03eb2a77f6d18ad48942a5f96ef9d2f7, type: 3}
    - {fileID: 21300000, guid: 7633fa47ae2e3b04da3e2b9a777f408c, type: 3}
    - {fileID: 21300000, guid: 0baa53130204eb94e95693861f0873f0, type: 3}
    - {fileID: 21300000, guid: 597fc096bef52bc42aed8afbb6ac802d, type: 3}
    - {fileID: 21300000, guid: d9af1462ff69d374a9c4c13cadaa592e, type: 3}
    - {fileID: 21300000, guid: 231dacd34be03a546afad27f7c0480fa, type: 3}
    - {fileID: 21300000, guid: 0bb4f3397a85046489f0ae3b8e5fc17f, type: 3}
    - {fileID: 21300000, guid: 8c3b8c829ef9a8244a072fe36fdfb8f9, type: 3}
    - {fileID: 21300000, guid: a39d6ad10dd9d1a48b94d1089a8822e6, type: 3}
    - {fileID: 21300000, guid: 5448ca6e2abad2d41b907fd14dcc7942, type: 3}
    - {fileID: 21300000, guid: 071be46a814e4904eaaf4ad7c4f3c700, type: 3}
    - {fileID: 21300000, guid: dcc8464989f78734592e3219fdb27106, type: 3}
    - {fileID: 21300000, guid: e55ba39288aeab8429c1e016412cbb64, type: 3}
    - {fileID: 21300000, guid: 46b56856873593048aa46b3316d145a6, type: 3}
    - {fileID: 21300000, guid: e8c5d030c9f601c4aa50fe1d39555173, type: 3}
    - {fileID: 21300000, guid: 81f8b590e1f8f8249864c208ca647d33, type: 3}
    - {fileID: 21300000, guid: 5b765351c47b2d247b32a1071bb162a5, type: 3}
    - {fileID: 21300000, guid: bccaedff9b4c92b4fbff135dcb23438a, type: 3}
    - {fileID: 21300000, guid: 593689a11aa0ab24d93a6e9e90e3b7bd, type: 3}
    - {fileID: 21300000, guid: a2247bfbe9f79684a8a0a6ea8665c03e, type: 3}
    - {fileID: 21300000, guid: 4f310998c83981e46b53a8bf742ed972, type: 3}
    - {fileID: 21300000, guid: a6ac9cd1c6478bf4688d53ffeaa97816, type: 3}
    - {fileID: 21300000, guid: 87e8545cd62c72c47ae7f123df0875f8, type: 3}
    - {fileID: 21300000, guid: ccf28a314b9ff024a88282d3f30e8e89, type: 3}
    - {fileID: 21300000, guid: fd61de226c5c93f4999c8420b46e1cfb, type: 3}
    - {fileID: 21300000, guid: 287cc39251b9af4428bba3d67523e9a1, type: 3}
    - {fileID: 21300000, guid: bfd15b816a76b7d4b9ada5ad4fe5b570, type: 3}
    - {fileID: 21300000, guid: b090baf7fb5cd1f45af7bf13680842da, type: 3}
    - {fileID: 21300000, guid: 9d88aab42b738da4db720e5fc6ce7b21, type: 3}
    - {fileID: 21300000, guid: a6aa7bf54d13c234fa28260ffc238bad, type: 3}
    - {fileID: 21300000, guid: 16a888c3eaf3f1544aee8345da8c82c8, type: 3}
    - {fileID: 21300000, guid: b7be54387dbbc7340a2876943ab60326, type: 3}
    - {fileID: 21300000, guid: 351ebc48973bbf54187859f2d91a843f, type: 3}
    - {fileID: 21300000, guid: 8ff571037d78ce249b224009d8c73596, type: 3}
    - {fileID: 21300000, guid: d219f8a21ab6da24ca8d70ecd1dd20f6, type: 3}
    - {fileID: 21300000, guid: 4de6c1ca5a670504792b55cc9d0cfdfa, type: 3}
    - {fileID: 21300000, guid: f2b4dec2b585b9f448885c62babf5ded, type: 3}
    - {fileID: 21300000, guid: 9ecaf2508877a3647a09f13bbda8eecf, type: 3}
    - {fileID: 21300000, guid: c506e3bd27d8a02439fba8e2eaf3727e, type: 3}
    - {fileID: 21300000, guid: b37dd9c19270c0f42959da83459add25, type: 3}
    - {fileID: 21300000, guid: 6c2701b6d9edb9048b6d2f1eb061b6c4, type: 3}
    - {fileID: 21300000, guid: 90c1169a80a8f9144ab1e3d224fa007b, type: 3}
    - {fileID: 21300000, guid: b973d93c13b823e46acfb2831184fec4, type: 3}
    - {fileID: 21300000, guid: fbcc7fc31fef63b4e84efb2170c96da0, type: 3}
    - {fileID: 21300000, guid: 099b557a0ea5174468156ab182c74c88, type: 3}
    - {fileID: 21300000, guid: 001e482d216e7e649887176d530fff06, type: 3}
    - {fileID: 21300000, guid: 078d933413a86cc4da3aec7c5018643f, type: 3}
    - {fileID: 21300000, guid: e5402f8fab9c2ba4a9b1eb874dfa2210, type: 3}
    - {fileID: 21300000, guid: af927a3a46224ce40a258df897a81e53, type: 3}
    - {fileID: 21300000, guid: 459cbbcdb719cdd45909c216c71058c2, type: 3}
    - {fileID: 21300000, guid: 429afe686aedef54aa6b02e8501bed72, type: 3}
    - {fileID: 21300000, guid: 3449b3580ef65b54f9611425cf8f391e, type: 3}
    - {fileID: 21300000, guid: 05978dee381fe7f48a6e57ce611c29e3, type: 3}
    - {fileID: 21300000, guid: 627e70d1baed6774691a82734db700b3, type: 3}
    - {fileID: 21300000, guid: 590a678fea769c648abb7764e978e3fc, type: 3}
    - {fileID: 21300000, guid: b62697ba5d55e244bad909c48833fa79, type: 3}
    - {fileID: 21300000, guid: d3268af412758f4438b1364c3aeb7dd0, type: 3}
    - {fileID: 21300000, guid: 7c1e9b1f502b215479f6bfd1af151d88, type: 3}
    - {fileID: 21300000, guid: 5aad1bb5bb76aed4bacb6a3fee3447bc, type: 3}
    - {fileID: 21300000, guid: 240f822fbe5ba5a41806619ae6edde0e, type: 3}
    - {fileID: 21300000, guid: 258d8178ed8af904ba4a9c076ba49797, type: 3}
    - {fileID: 21300000, guid: 7d7ddd25d7c980240b620732e388ea24, type: 3}
    - {fileID: 21300000, guid: 11e2b03cd1499614a8f99fa51ee650c8, type: 3}
    - {fileID: 21300000, guid: 978abd28e4d676d47862dcf5f879e6d8, type: 3}
    - {fileID: 21300000, guid: 83604098c74cb8e4e8aed953138fd60b, type: 3}
    - {fileID: 21300000, guid: ef5bee7865af5384181a8cbcfa6cea33, type: 3}
    - {fileID: 21300000, guid: 917ab82a52c043e42b06321892f1afd3, type: 3}
    - {fileID: 21300000, guid: 691298f02318f2a4b9e5bcdc1c323e6e, type: 3}
    - {fileID: 21300000, guid: 8d10491aa6ae60341883e8c5126085eb, type: 3}
    - {fileID: 21300000, guid: a7129ed7cf9ea924cb4cb78de71edfa4, type: 3}
    - {fileID: 21300000, guid: e344a51a378769944a16d6af07d25b2f, type: 3}
    - {fileID: 21300000, guid: 8812588f539709448b419b481a3b9d5c, type: 3}
    - {fileID: 21300000, guid: 86886be8c4bbfcb40bfea198ea227124, type: 3}
    - {fileID: 21300000, guid: 64b3fc27de3f9634d912dfda81c7f830, type: 3}
    - {fileID: 21300000, guid: c2569aff4862b3f4586aaa72f120d189, type: 3}
    - {fileID: 21300000, guid: 14ae20cdbd7f7954b9723897526e19a1, type: 3}
    - {fileID: 21300000, guid: 46dbeaa8b8330a44ca7731b8fb58c66f, type: 3}
    - {fileID: 21300000, guid: 64a451e7d98cd1041ba52f761a8a1f1e, type: 3}
    - {fileID: 21300000, guid: 892bd534c8b27f048825e87d84a74871, type: 3}
    - {fileID: 21300000, guid: 37483ddf5f81e0e45a8fb15c97065d91, type: 3}
    - {fileID: 21300000, guid: 83653073901f7504b82e9b35b22ab27a, type: 3}
    - {fileID: 21300000, guid: a4f284972d9cdf34e85cc014ad3dd0b0, type: 3}
    - {fileID: 21300000, guid: 379ce58d6eb7e3944824fe537820e130, type: 3}
    - {fileID: 21300000, guid: aabb4d0bc71c1cd40b75319dc4d38b39, type: 3}
    - {fileID: 21300000, guid: 3d5ee1e5c76b2e1449aac003a5d4555d, type: 3}
    - {fileID: 21300000, guid: f4b980addbfe0d848838a853e3772330, type: 3}
    - {fileID: 21300000, guid: 4837554e8f15f074491d61c73eaccd5d, type: 3}
    - {fileID: 21300000, guid: 3ad77bc98b0289a41b5ea2a7748c9703, type: 3}
    - {fileID: 21300000, guid: 2851564a7c514d946afd2c1e18c29a16, type: 3}
    - {fileID: 21300000, guid: 571a0599f53f5a94ca758610e3dad57b, type: 3}
    - {fileID: 21300000, guid: 7d8b957aeb68cf0459cef84f6b514445, type: 3}
    - {fileID: 21300000, guid: 66a06ff95f7e8d44ab06af956d47abfb, type: 3}
    - {fileID: 21300000, guid: fa9b7e02384c43c44bec07f2a5a5c1ef, type: 3}
    - {fileID: 21300000, guid: 566bfd054388463479a748ad0a8045d9, type: 3}
    - {fileID: 21300000, guid: 8e0669635fc812844a74e3a020004bd8, type: 3}
    - {fileID: 21300000, guid: a8099c925829a0e4b82f6451613eb309, type: 3}
    - {fileID: 21300000, guid: c88691ac3c5397941a6c3f8d13659e2b, type: 3}
    - {fileID: 21300000, guid: 8d65a5def9d4a884c927f008a7b0b609, type: 3}
    - {fileID: 21300000, guid: 9a04df9a61cb1de428ac265ec4ea494f, type: 3}
    - {fileID: 21300000, guid: 3463df4c1f40b4346b42b71b5555bb50, type: 3}
    - {fileID: 21300000, guid: 940ad437fef2bf247a382a722c160415, type: 3}
    - {fileID: 21300000, guid: b3fd6460b160ea34d9f37f32ed5d24b7, type: 3}
    - {fileID: 21300000, guid: 3afa5a6a865be2348a8372b27f7d8bb0, type: 3}
    - {fileID: 21300000, guid: 36add9e25e7bee7428e28e82a9f1c668, type: 3}
    - {fileID: 21300000, guid: e0cfec1c55c594c4ab3fec9c5a03fbce, type: 3}
    - {fileID: 21300000, guid: f91d8e6a40e058b4181bc619b374b576, type: 3}
    - {fileID: 21300000, guid: 19fe2ace7f25f2149aec1a1c8ca96e47, type: 3}
    - {fileID: 21300000, guid: 3848ec71459079c4ca96767879493a0f, type: 3}
    - {fileID: 21300000, guid: 5b79f8ff4f45dc5419d51ed0d3a5cba3, type: 3}
    - {fileID: 21300000, guid: fba64f01e59a61d47853f340b24a9522, type: 3}
    - {fileID: 21300000, guid: 95cabbba4fb8a4549af38301844d69fb, type: 3}
    - {fileID: 21300000, guid: f4d91d91fca313144abfccc2bff51e75, type: 3}
    - {fileID: 21300000, guid: 4e6c81d836398d84d92b1efd07269662, type: 3}
    - {fileID: 21300000, guid: 3b24132876739a6418fd9aba780f5a77, type: 3}
    - {fileID: 21300000, guid: 08035cf4425f77f429731eae6247f68a, type: 3}
    - {fileID: 21300000, guid: 9a49d48203510e542bf5fcc4e24e8c49, type: 3}
  m_AnimationClipSettings:
    serializedVersion: 2
    m_AdditiveReferencePoseClip: {fileID: 0}
    m_AdditiveReferencePoseTime: 0
    m_StartTime: 0
    m_StopTime: 6.016667
    m_OrientationOffsetY: 0
    m_Level: 0
    m_CycleOffset: 0
    m_HasAdditiveReferencePose: 0
    m_LoopTime: 1
    m_LoopBlend: 0
    m_LoopBlendOrientation: 0
    m_LoopBlendPositionY: 0
    m_LoopBlendPositionXZ: 0
    m_KeepOriginalOrientation: 0
    m_KeepOriginalPositionY: 1
    m_KeepOriginalPositionXZ: 0
    m_HeightFromFeet: 0
    m_Mirror: 0
  m_EditorCurves: []
  m_EulerEditorCurves: []
  m_HasGenericRootTransform: 0
  m_HasMotionFloatCurves: 0
  m_GenerateMotionCurves: 0
  m_Events: []
