%YAML 1.1
%TAG !u! tag:unity3d.com,2011:
--- !u!74 &7400000
AnimationClip:
  m_ObjectHideFlags: 0
  m_CorrespondingSourceObject: {fileID: 0}
  m_PrefabInternal: {fileID: 0}
  m_Name: Air
  serializedVersion: 6
  m_Legacy: 0
  m_Compressed: 0
  m_UseHighQualityCurve: 1
  m_RotationCurves: []
  m_CompressedRotationCurves: []
  m_EulerCurves: []
  m_PositionCurves: []
  m_ScaleCurves: []
  m_FloatCurves: []
  m_PPtrCurves:
  - curve:
    - time: 0
      value: {fileID: 21300000, guid: 9a1e12ddd2f371248b2a9c26b402ffa3, type: 3}
    - time: 0.033333335
      value: {fileID: 21300000, guid: f1aa0315c96fb3143b22c445355e8347, type: 3}
    - time: 0.06666667
      value: {fileID: 21300000, guid: e14bfab6753adc245b8451158540ad89, type: 3}
    - time: 0.1
      value: {fileID: 21300000, guid: a578a9dc345f14741a14d5da34acda5e, type: 3}
    - time: 0.13333334
      value: {fileID: 21300000, guid: 9d08a0ad8abe5f24ca80480a3e674182, type: 3}
    - time: 0.16666667
      value: {fileID: 21300000, guid: 382e956de4b2c2d499ec23c5b94d6b73, type: 3}
    - time: 0.2
      value: {fileID: 21300000, guid: 8ae4cb1a07cc89a4891f3d75ef797b67, type: 3}
    - time: 0.23333333
      value: {fileID: 21300000, guid: fec4d3b0ff73c73489352d2f8485dce9, type: 3}
    - time: 0.26666668
      value: {fileID: 21300000, guid: e7a41c50565298d4f91ad5c707e239a9, type: 3}
    - time: 0.3
      value: {fileID: 21300000, guid: 8c1b73f61eafb5e4da5b1041025828d6, type: 3}
    - time: 0.33333334
      value: {fileID: 21300000, guid: f5a92757e4bb64544b1724bf4789487a, type: 3}
    - time: 0.36666667
      value: {fileID: 21300000, guid: e0174647510ea4b49af199d2a3621ca5, type: 3}
    - time: 0.4
      value: {fileID: 21300000, guid: 8f51ab23f9ed8d144a8292d1e443f641, type: 3}
    - time: 0.43333334
      value: {fileID: 21300000, guid: 765fa450241ae694c82e61aa0577c5d7, type: 3}
    - time: 0.46666667
      value: {fileID: 21300000, guid: 7f8c3560c5b27784e9973ff3f448a44c, type: 3}
    - time: 0.5
      value: {fileID: 21300000, guid: cadfc9e1fb5222f4190cdc2c18a8ef32, type: 3}
    - time: 0.53333336
      value: {fileID: 21300000, guid: 3ec8a092d4531f5459c0397afb8fd7b7, type: 3}
    - time: 0.56666666
      value: {fileID: 21300000, guid: 2bd7dad31bc0ed84ab775266c0f5f23e, type: 3}
    - time: 0.6
      value: {fileID: 21300000, guid: 4188c1c2b2cc6e340b04e1e347b05e80, type: 3}
    - time: 0.6333333
      value: {fileID: 21300000, guid: d3305e1f780b1194aa8939a757abb4e5, type: 3}
    - time: 0.6666667
      value: {fileID: 21300000, guid: 23bf60767712ad740a6b18970f9e401d, type: 3}
    - time: 0.7
      value: {fileID: 21300000, guid: 938b80c8e5015fb4bbd67a8031d80fd1, type: 3}
    - time: 0.73333335
      value: {fileID: 21300000, guid: 871a9218232765040b79bd3ad5b25926, type: 3}
    - time: 0.76666665
      value: {fileID: 21300000, guid: d9802284c95a05d42bd11a3363c8d321, type: 3}
    - time: 0.8
      value: {fileID: 21300000, guid: 62c86be1bf8478a40af6e9ce808543b6, type: 3}
    - time: 0.8333333
      value: {fileID: 21300000, guid: ebe9f64b3e942254f8f4a1e8f6344169, type: 3}
    - time: 0.8666667
      value: {fileID: 21300000, guid: 1bb4df3c823345e408c2baf152605fef, type: 3}
    - time: 0.9
      value: {fileID: 21300000, guid: 633b73c27ae9014468b3fa7f632704cd, type: 3}
    - time: 0.93333334
      value: {fileID: 21300000, guid: a40e8ef018e0c8344bfc38785183ec33, type: 3}
    - time: 0.96666664
      value: {fileID: 21300000, guid: 803f5f19f035835488c40dd680e34b1a, type: 3}
    - time: 1
      value: {fileID: 21300000, guid: 5a24736b52acddb4489f3565e1a4bc27, type: 3}
    attribute: m_Sprite
    path: 
    classID: 212
    script: {fileID: 0}
  m_SampleRate: 60
  m_WrapMode: 0
  m_Bounds:
    m_Center: {x: 0, y: 0, z: 0}
    m_Extent: {x: 0, y: 0, z: 0}
  m_ClipBindingConstant:
    genericBindings:
    - serializedVersion: 2
      path: 0
      attribute: 0
      script: {fileID: 0}
      typeID: 212
      customType: 23
      isPPtrCurve: 1
    pptrCurveMapping:
    - {fileID: 21300000, guid: 9a1e12ddd2f371248b2a9c26b402ffa3, type: 3}
    - {fileID: 21300000, guid: f1aa0315c96fb3143b22c445355e8347, type: 3}
    - {fileID: 21300000, guid: e14bfab6753adc245b8451158540ad89, type: 3}
    - {fileID: 21300000, guid: a578a9dc345f14741a14d5da34acda5e, type: 3}
    - {fileID: 21300000, guid: 9d08a0ad8abe5f24ca80480a3e674182, type: 3}
    - {fileID: 21300000, guid: 382e956de4b2c2d499ec23c5b94d6b73, type: 3}
    - {fileID: 21300000, guid: 8ae4cb1a07cc89a4891f3d75ef797b67, type: 3}
    - {fileID: 21300000, guid: fec4d3b0ff73c73489352d2f8485dce9, type: 3}
    - {fileID: 21300000, guid: e7a41c50565298d4f91ad5c707e239a9, type: 3}
    - {fileID: 21300000, guid: 8c1b73f61eafb5e4da5b1041025828d6, type: 3}
    - {fileID: 21300000, guid: f5a92757e4bb64544b1724bf4789487a, type: 3}
    - {fileID: 21300000, guid: e0174647510ea4b49af199d2a3621ca5, type: 3}
    - {fileID: 21300000, guid: 8f51ab23f9ed8d144a8292d1e443f641, type: 3}
    - {fileID: 21300000, guid: 765fa450241ae694c82e61aa0577c5d7, type: 3}
    - {fileID: 21300000, guid: 7f8c3560c5b27784e9973ff3f448a44c, type: 3}
    - {fileID: 21300000, guid: cadfc9e1fb5222f4190cdc2c18a8ef32, type: 3}
    - {fileID: 21300000, guid: 3ec8a092d4531f5459c0397afb8fd7b7, type: 3}
    - {fileID: 21300000, guid: 2bd7dad31bc0ed84ab775266c0f5f23e, type: 3}
    - {fileID: 21300000, guid: 4188c1c2b2cc6e340b04e1e347b05e80, type: 3}
    - {fileID: 21300000, guid: d3305e1f780b1194aa8939a757abb4e5, type: 3}
    - {fileID: 21300000, guid: 23bf60767712ad740a6b18970f9e401d, type: 3}
    - {fileID: 21300000, guid: 938b80c8e5015fb4bbd67a8031d80fd1, type: 3}
    - {fileID: 21300000, guid: 871a9218232765040b79bd3ad5b25926, type: 3}
    - {fileID: 21300000, guid: d9802284c95a05d42bd11a3363c8d321, type: 3}
    - {fileID: 21300000, guid: 62c86be1bf8478a40af6e9ce808543b6, type: 3}
    - {fileID: 21300000, guid: ebe9f64b3e942254f8f4a1e8f6344169, type: 3}
    - {fileID: 21300000, guid: 1bb4df3c823345e408c2baf152605fef, type: 3}
    - {fileID: 21300000, guid: 633b73c27ae9014468b3fa7f632704cd, type: 3}
    - {fileID: 21300000, guid: a40e8ef018e0c8344bfc38785183ec33, type: 3}
    - {fileID: 21300000, guid: 803f5f19f035835488c40dd680e34b1a, type: 3}
    - {fileID: 21300000, guid: 5a24736b52acddb4489f3565e1a4bc27, type: 3}
  m_AnimationClipSettings:
    serializedVersion: 2
    m_AdditiveReferencePoseClip: {fileID: 0}
    m_AdditiveReferencePoseTime: 0
    m_StartTime: 0
    m_StopTime: 1.0166667
    m_OrientationOffsetY: 0
    m_Level: 0
    m_CycleOffset: 0
    m_HasAdditiveReferencePose: 0
    m_LoopTime: 1
    m_LoopBlend: 0
    m_LoopBlendOrientation: 0
    m_LoopBlendPositionY: 0
    m_LoopBlendPositionXZ: 0
    m_KeepOriginalOrientation: 0
    m_KeepOriginalPositionY: 1
    m_KeepOriginalPositionXZ: 0
    m_HeightFromFeet: 0
    m_Mirror: 0
  m_EditorCurves: []
  m_EulerEditorCurves: []
  m_HasGenericRootTransform: 0
  m_HasMotionFloatCurves: 0
  m_GenerateMotionCurves: 0
  m_Events: []
